{
  "qiuzhijianli": 557547,
  "zhengzu": 454561,
  "ershouqiche": 312290,
  "ershoufang": 289540,
  "jingyingzhuanrang": 214663,
  "ershougongchengche": 159311,
  "shouji": 159103,
  "gongren": 127609,
  "qitazhuanrang": 126538,
  "bijiben": 122920,
  "xiaoshou": 115242,
  "shoujihaoma": 99259,
  "siji": 96536,
  "qitazhaopin": 84221,
  "dianqi": 82478,
  "gongyeshebei": 77232,
  "fushi": 71835,
  "ershoumotuoche": 68263,
  "nanzhaonv": 66367,
  "qitafuwu": 65334,
  "chongwujiaoyi": 65057,
  "dianyuan": 64463,
  "jianzhiqiuzhi": 61471,
  "ktvjiuba": 57568,
  "zhenghun": 55407,
  "jiaju": 54721,
  "changfang": 54063,
  "xinfangchushou": 54029,
  "gerenzuche": 49080,
  "fuwuyuan": 45866,
  "shoucang": 45764,
  "zhuangxiu": 44399,
  "qitajianzhi": 44141,
  "jiameng": 41581,
  "tuolaji": 40724,
  "ershoukache": 40551,
  "jinengpeixun": 38889,
  "shangpuchushou": 38864,
  "nongchanpin": 38842,
  "xueshengjianzhi": 35776,
  "zhaoxiangji": 35558,
  "jiancaizhuangshi": 35326,
  "wenmi": 34170,
  "chushi": 34067,
  "riyongpin": 32472,
  "ershoudiandongche": 32167,
  "shangpu": 31582,
  "yinger": 29779,
  "kefu": 28457,
  "bangongyongpin": 26703,
  "baoan": 24957,
  "jiadianweixiu": 24464,
  "menpiao": 24410,
  "qiufang": 24273,
  "yundongqicai": 23550,
  "meigong": 22599,
  "jinrongfuwu": 21807,
  "huishou": 21031,
  "jiajiaopeixun": 20206,
  "duanzu": 19231,
  "banjia": 19163,
  "jiajuweixiu": 18741,
  "jiajiao": 18646,
  "meirongshi": 18481,
  "ershouzixingche": 18376,
  "licaifuwu": 18043,
  "pinche": 17904,
  "wentipeixun": 17293,
  "xuelipeixun": 17171,
  "shouyinyuan": 17154,
  "baojieqingxi": 16946,
  "qiantai": 16778,
  "baoxian": 16736,
  "laoshi": 16529,
  "diannaoweixiu": 16450,
  "baojian": 16353,
  "baomu": 16094,
  "zhuli": 16084,
  "kuaiji": 15913,
  "juhui": 15701,
  "cangguan": 15648,
  "paifajianzhi": 15575,
  "weixiu": 15204,
  "qitachongwu": 15068,
  "kuaidi": 14735,
  "siyi": 14637,
  "songhuoyuan": 13985,
  "baojie": 13452,
  "fangdichan": 13369,
  "cuxiaojianzhi": 13143,
  "peijiafuwu": 13107,
  "chengxuyuan": 12873,
  "daibanzhuce": 12565,
  "yinshuapenghui": 12000,
  "dianzhang": 11339,
  "sheyingfuwu": 11144,
  "kuaidiyuan": 10766,
  "bangyong": 10507,
  "xiaxianche": 10412,
  "qicheyongpin": 10278,
  "shebeizulin": 10180,
  "waiyupeixun": 10003,
  "shangpaiyanche": 9963,
  "qichepeijian": 9742,
  "shichang": 9644,
  "wangzhanjianshe": 9305,
  "cantingjianzhi": 9255,
  "lvxingshe": 9255,
  "nvzhaonan": 9106,
  "qiepei": 8829,
  "cheliangqiugou": 8595,
  "diannaopeixun": 8523,
  "renshi": 8314,
  "sheji": 8303,
  "lvyou": 8276,
  "xincheyouhui": 8245,
  "yule": 8144,
  "xingzheng": 8027,
  "qingdian": 7793,
  "shangxiabanpinche": 7507,
  "shejipeixun": 7411,
  "jinengjiaohuan": 7232,
  "meirongfuwu": 6924,
  "chongwulingyang": 6857,
  "jiaxiaofuwu": 6852,
  "shoufang": 6697,
  "kaisuo": 6663,
  "xunrenqishi": 6489,
  "mote": 6408,
  "chongwupeizhong": 5879,
  "canyin": 5749,
  "qicheweixiu": 5276,
  "laoxianghui": 5033,
  "dazhecuxiao": 4842,
  "xianhualipin": 4765,
  "wangguan": 4710,
  "kuaijifuwu": 4662,
  "lipinfuwu": 4602,
  "jipiaofuwu": 4302,
  "youerpeixun": 4024,
  "liyi": 3672,
  "kefujianzhi": 3639,
  "sheying": 3602,
  "jiudianfuwu": 3491,
  "bendimingzhan": 3182,
  "chongwuyongpin": 3093,
  "chongwumao": 3051,
  "daqiu": 2989,
  "wenjuanjianzhi": 2854,
  "kuaijijianzhi": 2614,
  "lvshifuwu": 2574,
  "wangzhan": 2563,
  "editor": 2477,
  "shejijianzhi": 2388,
  "yanyuan": 2061,
  "chongchang": 1973,
  "zhaopinhui": 1434,
  "fanyi": 1428,
  "sheyingjianzhi": 1177,
  "fanyifuwu": 994,
  "fanyijianzhi": 816,
  "cheliangpinggu": 652
}
